{
  "": 143022,
  "DA Warner": 94,
  "S Dhawan": 95,
  "MC Henriques": 33,
  "Yuvraj Singh": 96,
  "Mandeep Singh": 52,
  "CH Gayle": 88,
  "TM Head": 5,
  "Sachin Baby": 7,
  "STR Binny": 33,
  "SR Watson": 78,
  "S Aravind": 3,
  "TS Mills": 3,
  "PA Patel": 97,
  "RG Sharma": 120,
  "JC Buttler": 20,
  "AT Rayudu": 80,
  "KH Pandya": 11,
  "N Rana": 14,
  "KA Pollard": 79,
  "MA Agarwal": 46,
  "AM Rahane": 84,
  "BA Stokes": 10,
  "JJ Roy": 2,
  "BB McCullum": 94,
  "AJ Finch": 55,
  "KD Karthik": 108,
  "SPD Smith": 43,
  "MS Dhoni": 87,
  "DT Christian": 22,
  "M Vohra": 35,
  "WP Saha": 55,
  "HM Amla": 12,
  "AR Patel": 26,
  "KM Jadhav": 31,
  "P Negi": 17,
  "AP Tare": 22,
  "KK Nair": 44,
  "SW Billings": 10,
  "SV Samson": 53,
  "CH Morris": 10,
  "CR Brathwaite": 8,
  "PJ Cummins": 6,
  "RR Pant": 18,
  "S Nadeem": 10,
  "SK Raina": 122,
  "DR Smith": 79,
  "G Gambhir": 116,
  "RV Uthappa": 121,
  "CA Lynn": 9,
  "YK Pathan": 87,
  "SA Yadav": 27,
  "CR Woakes": 3,
  "SP Narine": 17,
  "Vishnu Vinod": 2,
  "RA Tripathi": 11,
  "F du Plessis": 36,
  "R Bhatia": 25,
  "DL Chahar": 1,
  "A Zampa": 2,
  "AB Dinda": 8,
  "DJ Hooda": 21,
  "BCJ Cutting": 4,
  "V Shankar": 2,
  "NV Ojha": 69,
  "Rashid Khan": 2,
  "MP Stoinis": 7,
  "GJ Maxwell": 49,
  "DA Miller": 43,
  "MM Sharma": 12,
  "VR Aaron": 2,
  "V Kohli": 112,
  "AB de Villiers": 82,
  "MJ McClenaghan": 6,
  "Ankit Sharma": 7,
  "MK Tiwary": 50,
  "SN Thakur": 3,
  "MK Pandey": 73,
  "C de Grandhomme": 8,
  "SS Iyer": 28,
  "EJG Morgan": 33,
  "KC Cariappa": 3,
  "Ishan Kishan": 12,
  "S Badree": 5,
  "AF Milne": 2,
  "AD Mathews": 27,
  "Mohammad Nabi": 1,
  "I Sharma": 5,
  "KS Williamson": 12,
  "SE Marsh": 59,
  "CJ Anderson": 16,
  "K Rabada": 3,
  "RA Jadeja": 68,
  "AD Nath": 4,
  "AJ Tye": 1,
  "NM Coulter-Nile": 7,
  "Kuldeep Yadav": 2,
  "YS Chahal": 1,
  "KV Sharma": 18,
  "HH Pandya": 18,
  "MJ Guptill": 9,
  "Anureet Singh": 4,
  "IK Pathan": 44,
  "JP Faulkner": 25,
  "Harbhajan Singh": 43,
  "Mohammed Shami": 7,
  "SP Jackson": 2,
  "PJ Sangwan": 5,
  "Ankit Soni": 2,
  "A Choudhary": 1,
  "Bipul Sharma": 5,
  "B Kumar": 17,
  "LMP Simmons": 26,
  "MN Samuels": 10,
  "Z Khan": 12,
  "Swapnil Singh": 3,
  "P Kumar": 28,
  "MM Patel": 4,
  "R Tewatia": 2,
  "A Mishra": 19,
  "CJ Jordan": 1,
  "IR Jaggi": 5,
  "PP Chawla": 36,
  "AS Rajpoot": 1,
  "SC Ganguly": 51,
  "RT Ponting": 8,
  "DJ Hussey": 43,
  "R Dravid": 71,
  "JH Kallis": 80,
  "W Jaffer": 7,
  "MV Boucher": 13,
  "B Akhil": 5,
  "CL White": 31,
  "SB Joshi": 1,
  "ML Hayden": 28,
  "JDP Oram": 8,
  "K Goel": 11,
  "JR Hopes": 15,
  "KC Sangakkara": 63,
  "T Kohli": 2,
  "DS Lehmann": 2,
  "M Kaif": 16,
  "M Rawat": 5,
  "SK Warne": 15,
  "V Sehwag": 92,
  "L Ronchi": 2,
  "PR Shah": 8,
  "AM Nayar": 30,
  "SM Pollock": 8,
  "S Chanderpaul": 3,
  "LRPL Taylor": 38,
  "Y Venugopal Rao": 33,
  "VVS Laxman": 14,
  "AC Gilchrist": 74,
  "SB Styris": 7,
  "AS Yadav": 5,
  "A Symonds": 23,
  "WPUJC Vaas": 6,
  "SB Bangar": 5,
  "Mohammad Hafeez": 7,
  "DPMD Jayawardene": 56,
  "B Lee": 7,
  "Kamran Akmal": 3,
  "Shahid Afridi": 8,
  "MEK Hussey": 47,
  "ST Jayasuriya": 27,
  "DJ Bravo": 53,
  "MA Khote": 2,
  "GC Smith": 26,
  "RR Sarwan": 3,
  "S Sohal": 17,
  "S Sreesanth": 3,
  "SS Tiwary": 41,
  "AB Agarkar": 7,
  "M Kartik": 5,
  "Shoaib Malik": 4,
  "TM Srivastava": 1,
  "B Chipli": 15,
  "DW Steyn": 19,
  "DB Das": 12,
  "HH Gibbs": 29,
  "DNT Zoysa": 1,
  "D Kalyankrishna": 1,
  "SA Asnodkar": 14,
  "Salman Butt": 7,
  "SP Fleming": 8,
  "S Vidyut": 8,
  "JA Morkel": 36,
  "LPC Silva": 2,
  "DB Ravi Teja": 18,
  "RP Singh": 11,
  "Misbah-ul-Haq": 7,
  "BJ Hodge": 40,
  "LR Shukla": 25,
  "YV Takawale": 8,
  "DJ Thornely": 2,
  "Mohammad Asif": 1,
  "GD McGrath": 1,
  "S Badrinath": 43,
  "Joginder Sharma": 3,
  "M Muralitharan": 4,
  "M Ntini": 1,
  "S Anirudha": 8,
  "Sohail Tanvir": 3,
  "SK Trivedi": 7,
  "CK Kapugedera": 3,
  "A Chopra": 4,
  "T Taibu": 2,
  "SP Goswami": 14,
  "R Vinay Kumar": 24,
  "VRV Singh": 1,
  "MF Maharoof": 8,
  "AD Mascarenhas": 7,
  "J Arunkumar": 2,
  "VY Mahesh": 2,
  "SR Tendulkar": 61,
  "Younis Khan": 1,
  "Niraj Patel": 4,
  "D Salunkhe": 1,
  "PP Ojha": 8,
  "Shoaib Akhtar": 1,
  "TM Dilshan": 39,
  "DT Patil": 1,
  "A Kumble": 2,
  "Umar Gul": 2,
  "MS Gony": 8,
  "LA Pomersbach": 10,
  "SD Chitnis": 6,
  "A Mukund": 2,
  "WA Mota": 5,
  "JP Duminy": 45,
  "A Flintoff": 2,
  "JD Ryder": 26,
  "KP Pietersen": 25,
  "T Henderson": 1,
  "Kamran Khan": 1,
  "RS Bopara": 17,
  "R Bishnoi": 2,
  "PC Valthaty": 21,
  "RJ Quiney": 7,
  "Yashpal Singh": 4,
  "Pankaj Singh": 2,
  "FH Edwards": 1,
  "AS Raut": 7,
  "AN Ghosh": 2,
  "BAW Mendis": 2,
  "DL Vettori": 6,
  "RE van der Merwe": 10,
  "AA Bilakhia": 5,
  "TL Suman": 29,
  "GR Napier": 1,
  "MN van Wyk": 3,
  "LA Carseldine": 2,
  "M Vijay": 83,
  "L Balaji": 6,
  "SB Jakati": 1,
  "M Manhas": 21,
  "SM Katich": 8,
  "RJ Harris": 12,
  "D du Preez": 1,
  "RR Raje": 1,
  "M Morkel": 10,
  "Shoaib Ahmed": 1,
  "DS Kulkarni": 5,
  "J Botha": 18,
  "A Singh": 4,
  "AB McDonald": 5,
  "Y Nagar": 13,
  "R Ashwin": 18,
  "Mohammad Ashraful": 1,
  "CA Pujara": 17,
  "Anirudh Singh": 4,
  "AA Jhunjhunwala": 10,
  "A Uniyal": 1,
  "RR Powar": 2,
  "JM Kemp": 2,
  "MS Bisla": 33,
  "OA Shah": 10,
  "RS Gavaskar": 1,
  "SE Bond": 1,
  "DP Nannes": 1,
  "MJ Lumb": 10,
  "DR Martyn": 1,
  "S Narwal": 3,
  "P Dogra": 7,
  "AB Barath": 2,
  "FY Fazal": 6,
  "R Sathish": 14,
  "MD Mishra": 14,
  "GJ Bailey": 23,
  "J Theron": 1,
  "SJ Srivastava": 1,
  "R Sharma": 10,
  "AC Voges": 4,
  "Jaskaran Singh": 1,
  "KAJ Roach": 1,
  "PD Collingwood": 3,
  "CK Langeveldt": 2,
  "VS Malik": 1,
  "SW Tait": 3,
  "A Mithun": 5,
  "AP Dole": 2,
  "R McLaren": 6,
  "T Thushara": 1,
  "S Sriram": 2,
  "A Nehra": 6,
  "C Madan": 1,
  "AG Paunikar": 5,
  "MR Marsh": 11,
  "B Sumanth": 1,
  "Harmeet Singh": 2,
  "RV Gomez": 5,
  "UBT Chand": 20,
  "UT Yadav": 7,
  "DJ Jacobs": 7,
  "AL Menaria": 20,
  "AUK Pathan": 5,
  "Sunny Singh": 3,
  "JJ van der Wath": 2,
  "R Ninan": 1,
  "MS Wade": 3,
  "TD Paine": 2,
  "WD Parnell": 6,
  "SB Wagh": 1,
  "JEC Franklin": 11,
  "Shakib Al Hasan": 21,
  "S Randiv": 1,
  "BJ Haddin": 1,
  "NLTC Perera": 21,
  "NL McCullum": 1,
  "RN ten Doeschate": 12,
  "TR Birt": 5,
  "SL Malinga": 10,
  "M Klinger": 4,
  "Harpreet Singh": 2,
  "AC Blizzard": 7,
  "CA Ingram": 2,
  "DH Yagnik": 9,
  "KB Arun Karthik": 4,
  "ND Doshi": 1,
  "CJ Ferguson": 5,
  "Y Gnaneswara Rao": 1,
  "S Rana": 4,
  "DE Bollinger": 1,
  "RE Levi": 6,
  "HV Patel": 7,
  "DJ Harris": 3,
  "KK Cooper": 9,
  "AA Chavan": 1,
  "GB Hogg": 2,
  "RR Bhatkal": 1,
  "CJ McKay": 1,
  "N Saini": 10,
  "Azhar Mahmood": 16,
  "A Ashish Reddy": 13,
  "V Pratap Singh": 1,
  "RJ Peterson": 1,
  "MJ Clarke": 5,
  "Gurkeerat Singh": 19,
  "AP Majumdar": 4,
  "PA Reddy": 9,
  "AC Thomas": 1,
  "AD Russell": 19,
  "Sunny Gupta": 1,
  "MC Juneja": 6,
  "GH Vihari": 17,
  "MDKJ Perera": 2,
  "B Laughlin": 1,
  "BMAJ Mendis": 2,
  "R Rampaul": 5,
  "P Awana": 2,
  "BJ Rohrer": 7,
  "KL Rahul": 23,
  "J Syed Mohammad": 2,
  "Q de Kock": 24,
  "BB Samantray": 4,
  "R Dhawan": 6,
  "MG Johnson": 13,
  "LJ Wright": 4,
  "AG Murtaza": 1,
  "IC Pandey": 1,
  "X Thalaivan Sargunam": 1,
  "DJG Sammy": 14,
  "KW Richardson": 3,
  "CM Gautam": 9,
  "UA Birla": 1,
  "Parvez Rasool": 2,
  "NJ Maddinson": 3,
  "JDS Neesham": 3,
  "TG Southee": 3,
  "MA Starc": 5,
  "BR Dunk": 3,
  "RR Rossouw": 5,
  "PV Tambe": 1,
  "Shivam Sharma": 1,
  "VH Zol": 2,
  "Imran Tahir": 3,
  "R Shukla": 1,
  "BE Hendricks": 1,
  "M de Lange": 1,
  "JD Unadkat": 1,
  "SA Abbott": 1,
  "AN Ahmed": 1,
  "SN Khan": 5,
  "D Wiese": 4,
  "Iqbal Abdulla": 1,
  "Karanveer Singh": 1,
  "Sandeep Sharma": 1,
  "J Suchith": 1,
  "S Gopal": 1,
  "M Ashwin": 1,
  "NS Naik": 2,
  "PSP Handscomb": 1,
  "UT Khawaja": 4,
  "JJ Bumrah": 1,
  "S Kaushik": 1,
  "F Behardien": 2,
  "KJ Abbott": 1,
  "JO Holder": 3,
  "C Munro": 1,
  "ER Dwivedi": 2
}